<svg width="222" height="188" viewBox="0 0 222 188" fill="none" xmlns="http://www.w3.org/2000/svg">
<g filter="url(#filter0_d)">
<path d="M30.2758 87.5463C30.8061 88.7813 30.9289 90.2434 30.6443 91.9327C30.347 93.5926 29.8732 95.0846 29.2228 96.4086C27.4982 99.935 26.8758 102.257 27.3555 103.374C28.416 105.844 27.9759 107.496 26.0352 108.329C25.1531 108.708 24.2791 108.7 23.4133 108.306C22.5769 107.899 21.9251 107.151 21.458 106.063C20.9908 104.975 20.8199 103.847 20.9452 102.679C21.0873 101.469 21.3827 100.332 21.8316 99.2686C22.2679 98.1758 22.7168 97.1125 23.1783 96.0785C24.3279 93.5651 24.6061 91.6174 24.0127 90.2354C23.6213 89.3238 22.9235 88.7529 21.9191 88.5224C20.9315 88.25 19.9525 88.322 18.9821 88.7387C18.0412 89.1427 17.3294 89.7965 16.8468 90.7002C16.381 91.5619 15.9509 92.4256 15.5565 93.2915C15.1789 94.1153 14.5931 94.6976 13.7992 95.0385C13.0053 95.3794 12.2447 95.3925 11.5176 95.0778C10.7779 94.7338 10.2502 94.1942 9.93458 93.4591C9.34121 92.0771 9.69717 90.2701 11.0025 88.038C12.2951 85.7766 14.0882 84.1535 16.3817 83.1688C19.381 81.881 22.1813 81.6712 24.7828 82.5393C27.3843 83.4073 29.2153 85.0763 30.2758 87.5463ZM27.0075 110.837C28.0367 110.395 28.9905 110.386 29.8689 110.81C30.7348 111.204 31.376 111.887 31.7926 112.857C32.2092 113.827 32.2498 114.855 31.9144 115.939C31.5663 116.994 30.8777 117.742 29.8486 118.184C28.8488 118.613 27.9097 118.616 27.0313 118.192C26.1822 117.756 25.5494 117.052 25.1328 116.082C24.7162 115.112 24.6672 114.105 24.9858 113.063C25.3339 112.008 26.0078 111.266 27.0075 110.837Z" fill="white"/>
</g>
<g filter="url(#filter1_d)">
<path d="M206.205 97.2666C205.448 98.3767 204.28 99.2647 202.701 99.9309C201.141 100.571 199.628 100.971 198.161 101.133C194.26 101.569 191.967 102.289 191.281 103.294C189.766 105.514 188.136 106.029 186.392 104.838C185.599 104.297 185.136 103.555 185.005 102.613C184.899 101.688 185.181 100.737 185.848 99.7593C186.516 98.7815 187.376 98.032 188.429 97.511C189.527 96.9816 190.644 96.6211 191.783 96.4295C192.939 96.2114 194.077 96.0197 195.197 95.8545C197.935 95.4762 199.728 94.666 200.576 93.4238C201.135 92.6045 201.243 91.7093 200.898 90.738C200.598 89.7584 200.012 88.9709 199.14 88.3755C198.294 87.7982 197.361 87.5483 196.339 87.6259C195.362 87.6951 194.402 87.7955 193.46 87.9271C192.562 88.0504 191.757 87.8685 191.043 87.3814C190.329 86.8943 189.91 86.2595 189.786 85.4771C189.679 84.6682 189.852 83.9334 190.303 83.2727C191.151 82.0305 192.866 81.3615 195.45 81.2656C198.052 81.1432 200.384 81.7856 202.446 83.1929C205.141 85.0331 206.821 87.2837 207.484 89.9449C208.147 92.606 207.721 95.0466 206.205 97.2666ZM184.797 107.004C185.722 107.635 186.241 108.435 186.355 109.404C186.486 110.346 186.255 111.253 185.659 112.126C185.064 112.998 184.219 113.583 183.124 113.882C182.047 114.154 181.046 113.974 180.121 113.343C179.222 112.73 178.716 111.939 178.602 110.97C178.515 110.019 178.769 109.108 179.365 108.236C179.96 107.363 180.783 106.782 181.833 106.492C182.91 106.22 183.898 106.39 184.797 107.004Z" fill="white"/>
</g>
<g filter="url(#filter2_d)">
<path d="M135.071 66.448C135.208 70.4777 133.96 74.6988 131.325 79.1115C128.688 83.4282 125.739 87.0832 122.479 90.0764C113.819 98.0572 109.551 103.871 109.676 107.516C109.952 115.576 106.924 119.714 100.591 119.93C97.713 120.029 95.2783 119.056 93.2872 117.01C91.3921 114.962 90.3837 112.163 90.2623 108.613C90.1408 105.063 90.8911 101.723 92.513 98.5941C94.2276 95.3656 96.2911 92.5094 98.7036 90.0254C101.113 87.4455 103.525 84.9616 105.941 82.5736C111.891 76.7987 114.789 71.6566 114.635 67.1473C114.533 64.173 113.203 61.8171 110.647 60.0795C108.182 58.2427 105.367 57.3785 102.201 57.4868C99.1307 57.5919 96.4292 58.6448 94.0962 60.6458C91.856 62.5475 89.7133 64.4939 87.6682 66.485C85.7157 68.3769 83.4442 69.3672 80.8538 69.4558C78.2633 69.5444 76.123 68.7532 74.4328 67.082C72.7394 65.3148 71.8517 63.232 71.7696 60.8334C71.6153 56.324 74.5775 51.66 80.6563 46.8413C86.7318 41.9267 93.5114 39.3413 100.995 39.0853C110.781 38.7504 118.838 41.2124 125.166 46.4711C131.493 51.7298 134.795 58.3887 135.071 66.448ZM100.579 127.999C103.937 127.885 106.614 128.898 108.608 131.039C110.599 133.084 111.649 135.689 111.757 138.856C111.865 142.022 110.86 144.938 108.742 147.604C106.621 150.174 103.881 151.516 100.523 151.631C97.2612 151.743 94.633 150.728 92.6386 148.587C90.7402 146.443 89.7368 143.787 89.6285 140.621C89.5201 137.455 90.4787 134.589 92.5041 132.022C94.6254 129.452 97.3172 128.111 100.579 127.999Z" fill="white"/>
</g>
<defs>
<filter id="filter0_d" x="5.6564" y="82.015" width="30.4824" height="44.4931" filterUnits="userSpaceOnUse" color-interpolation-filters="sRGB">
<feFlood flood-opacity="0" result="BackgroundImageFix"/>
<feColorMatrix in="SourceAlpha" type="matrix" values="0 0 0 0 0 0 0 0 0 0 0 0 0 0 0 0 0 0 127 0"/>
<feOffset dy="4"/>
<feGaussianBlur stdDeviation="2"/>
<feColorMatrix type="matrix" values="0 0 0 0 0 0 0 0 0 0 0 0 0 0 0 0 0 0 0.25 0"/>
<feBlend mode="normal" in2="BackgroundImageFix" result="effect1_dropShadow"/>
<feBlend mode="normal" in="SourceGraphic" in2="effect1_dropShadow" result="shape"/>
</filter>
<filter id="filter1_d" x="174.586" y="81.2509" width="37.2009" height="40.754" filterUnits="userSpaceOnUse" color-interpolation-filters="sRGB">
<feFlood flood-opacity="0" result="BackgroundImageFix"/>
<feColorMatrix in="SourceAlpha" type="matrix" values="0 0 0 0 0 0 0 0 0 0 0 0 0 0 0 0 0 0 127 0"/>
<feOffset dy="4"/>
<feGaussianBlur stdDeviation="2"/>
<feColorMatrix type="matrix" values="0 0 0 0 0 0 0 0 0 0 0 0 0 0 0 0 0 0 0.25 0"/>
<feBlend mode="normal" in2="BackgroundImageFix" result="effect1_dropShadow"/>
<feBlend mode="normal" in="SourceGraphic" in2="effect1_dropShadow" result="shape"/>
</filter>
<filter id="filter2_d" x="67.7639" y="39.0552" width="71.317" height="120.584" filterUnits="userSpaceOnUse" color-interpolation-filters="sRGB">
<feFlood flood-opacity="0" result="BackgroundImageFix"/>
<feColorMatrix in="SourceAlpha" type="matrix" values="0 0 0 0 0 0 0 0 0 0 0 0 0 0 0 0 0 0 127 0"/>
<feOffset dy="4"/>
<feGaussianBlur stdDeviation="2"/>
<feColorMatrix type="matrix" values="0 0 0 0 0 0 0 0 0 0 0 0 0 0 0 0 0 0 0.25 0"/>
<feBlend mode="normal" in2="BackgroundImageFix" result="effect1_dropShadow"/>
<feBlend mode="normal" in="SourceGraphic" in2="effect1_dropShadow" result="shape"/>
</filter>
</defs>
</svg>
