<svg width="55" height="55" viewBox="0 0 68 68" fill="none" xmlns="http://www.w3.org/2000/svg">
<circle cx="34" cy="34" r="34" fill="#F2F2F2"/>
<path d="M22.2491 13.2222C20.5271 13.2222 19.0985 14.4817 18.9111 16.0881L18.8887 16.8045C18.8887 18.3808 20.2329 19.6704 21.8758 19.6704H22.6225H24.8628H26.3564L27.8499 16.8045H36.8112L35.3467 19.6138C35.3333 19.6404 35.3535 19.6704 35.3833 19.6704H35.5409H50.9998V13.2222H22.2491Z" fill="#EAD8BB"/>
<path d="M35.3176 19.6706V38.443C35.3176 38.8048 34.821 38.9373 34.6269 38.6264L30.837 32.5671L27.0471 38.6271C26.853 38.9373 26.3564 38.8055 26.3564 38.4437V19.6706H21.8758C20.2329 19.6706 18.8887 18.3809 18.8887 16.8047V51.8819C18.8887 53.481 20.2403 54.7779 21.9071 54.7779H50.9998V19.6706H35.3176Z" fill="#6B4842"/>
<path d="M22.6225 19.6706H21.8758C20.2329 19.6706 18.8887 18.3809 18.8887 16.8047V51.8819C18.8887 53.481 20.2403 54.7779 21.9071 54.7779H22.6225V19.6706Z" fill="#513531"/>
<path d="M51.0009 14.6553H44.28C43.867 14.6553 43.5332 14.9755 43.5332 15.3717C43.5332 15.768 43.867 16.0882 44.28 16.0882H51.0009V14.6553Z" fill="#D3BEA1"/>
<path d="M50.9983 16.8047H45.0241C44.6111 16.8047 44.2773 17.125 44.2773 17.5212C44.2773 17.9174 44.6111 18.2376 45.0241 18.2376H50.9983V16.8047Z" fill="#D3BEA1"/>
<path d="M27.851 16.8047L26.3574 19.6706V38.443C26.3574 38.8048 26.8548 38.9373 27.0482 38.6264L30.838 32.5671L34.6279 38.6271C34.8221 38.9373 35.3187 38.8055 35.3187 38.4437V19.6706L36.8122 16.8047H27.851Z" fill="#DD352E"/>
<path d="M27.851 16.8047L26.3574 19.6706H35.3187L36.8122 16.8047H27.851Z" fill="#B02721"/>
<circle cx="49.1126" cy="18.8889" r="11.3333" fill="#108690"/>
<path d="M46.6967 14.8593V11.3334L41.5547 17.5037L46.6967 23.6741V20.06C50.3695 20.06 52.9405 21.4704 54.7769 24.5556C54.0423 20.1482 51.8386 15.7408 46.6967 14.8593Z" fill="white"/>
</svg>
