<svg width="1439" height="443" viewBox="0 0 1439 443" fill="none" xmlns="http://www.w3.org/2000/svg">
<rect width="1440" height="443" fill="#F2A614"/>
<path d="M143.409 35.3883L140.174 36.0933L128.871 38.5572L80.4268 49.1165L94.3863 65.3151L110.802 84.3644L124.747 100.546L131.206 99.138L136.023 104.727L140.294 100.78L148.941 101.911L144.125 96.3222L173.191 89.9866L184.495 87.5228L187.729 86.8178C191.288 86.042 192.712 83.7031 190.904 81.6049L180.239 69.2294L163.823 50.1801L153.143 37.7876C151.333 35.6896 146.966 34.6129 143.409 35.3883ZM85.2964 50.3178L130.511 40.4625L142.829 54.7561L97.6142 64.6115L85.2964 50.3178ZM147.085 73.0504C146.194 73.2447 145.838 73.8291 146.291 74.3549C146.291 74.3549 146.3 74.3608 146.303 74.3637L139.837 75.773C139.835 75.7701 139.835 75.7656 139.835 75.7656C139.378 75.236 138.288 74.968 137.397 75.1623C136.505 75.3566 136.149 75.941 136.603 76.4667C136.603 76.4667 136.612 76.4727 136.614 76.4755L130.148 77.8848C130.146 77.882 130.146 77.8775 130.146 77.8775C129.689 77.3479 128.599 77.0798 127.708 77.2741C126.816 77.4684 126.461 78.0528 126.914 78.5786C126.914 78.5786 126.923 78.5845 126.925 78.5874L120.46 79.9967C120.457 79.9938 120.457 79.9893 120.457 79.9893C120.001 79.4598 118.91 79.1917 118.019 79.386C117.128 79.5803 116.772 80.1647 117.225 80.6904C117.225 80.6904 117.234 80.6964 117.236 80.6992L112.389 81.7559L109.918 78.8889L104.993 73.1741L100.068 67.4593L99.2559 66.5164L100.788 66.1824C99.9603 66.3945 99.6301 66.9507 100.068 67.4593C100.522 67.9851 101.613 68.2541 102.504 68.0598C103.395 67.8655 103.751 67.2812 103.298 66.7554C102.86 66.2468 101.827 65.9877 100.953 66.1465L110.477 64.0705C109.649 64.2827 109.319 64.8389 109.757 65.3475C110.21 65.8732 111.301 66.1423 112.193 65.948C113.084 65.7537 113.44 65.1693 112.987 64.6435C112.549 64.1349 111.516 63.8758 110.642 64.0346L120.166 61.9587C119.338 62.1708 119.008 62.727 119.446 63.2356C119.899 63.7614 120.99 64.0304 121.882 63.8361C122.773 63.6418 123.129 63.0574 122.676 62.5317C122.237 62.0231 121.205 61.7639 120.331 61.9228L129.855 59.8468C129.027 60.059 128.697 60.6152 129.135 61.1238C129.588 61.6495 130.679 61.9186 131.57 61.7243C132.462 61.53 132.818 60.9456 132.364 60.4198C131.926 59.9112 130.893 59.6521 130.019 59.8109L139.543 57.735C138.715 57.9471 138.385 58.5033 138.824 59.0119C139.277 59.5377 140.368 59.8067 141.259 59.6124C142.151 59.4181 142.506 58.8337 142.053 58.308C141.615 57.7994 140.582 57.5402 139.708 57.6991L144.47 56.6611L146.924 59.509C146.033 59.7032 145.677 60.2876 146.13 60.8134C146.584 61.3392 147.675 61.6082 148.566 61.4139L151.849 65.2238C150.958 65.418 150.602 66.0024 151.055 66.5282C151.508 67.054 152.6 67.323 153.491 67.1287L156.774 70.9386C155.883 71.1329 155.527 71.7172 155.98 72.243C155.98 72.243 155.989 72.249 155.992 72.2518L149.526 73.6611C149.523 73.6583 149.523 73.6538 149.523 73.6538C149.067 73.1242 147.977 72.8561 147.085 73.0504ZM142.644 99.0571L138.319 98.4905L136.184 100.465L134.434 98.4344L140.894 97.0265L142.644 99.0571ZM142.482 94.4176L129.563 97.2334L126.334 97.9373L114.03 83.6608L159.245 73.8055L171.548 88.082L142.482 94.4176ZM174.777 87.3781L162.474 73.1015L146.058 54.0522L133.74 39.7585L138.585 38.7026L150.903 52.9963L167.319 72.0456L179.622 86.3221L174.777 87.3781ZM160.637 55.3887C161.528 55.1944 161.884 54.61 161.431 54.0843C160.992 53.5756 159.96 53.3165 159.086 53.4753L162.233 52.7893L175.366 68.0288L168.907 69.4367L155.774 54.1972L158.921 53.5112C158.093 53.7234 157.763 54.2796 158.201 54.7882C158.654 55.314 159.745 55.583 160.637 55.3887ZM187.672 82.3092C188.576 83.3578 187.864 84.5257 186.086 84.9132L182.851 85.6182L170.548 71.3417L177.008 69.9338L187.672 82.3092ZM154.132 52.2923L141.814 37.9986L145.049 37.2936C146.827 36.9061 149.009 37.4441 149.912 38.4919L160.591 50.8844L154.132 52.2923Z" fill="white" fill-opacity="0.5"/>
<path d="M109.809 69.8613C110.701 69.6669 111.056 69.0829 110.603 68.5569C110.15 68.0308 109.059 67.762 108.168 67.9564C107.276 68.1508 106.92 68.7348 107.374 69.2608C107.827 69.7869 108.917 70.0557 109.809 69.8613Z" fill="white" fill-opacity="0.5"/>
<path d="M119.497 67.7497C120.388 67.5553 120.744 66.9713 120.291 66.4453C119.837 65.9193 118.747 65.6504 117.855 65.8448C116.963 66.0392 116.608 66.6232 117.061 67.1492C117.514 67.6753 118.605 67.9441 119.497 67.7497Z" fill="white" fill-opacity="0.5"/>
<path d="M129.187 65.6372C130.079 65.4428 130.434 64.8588 129.981 64.3327C129.528 63.8067 128.437 63.5379 127.545 63.7323C126.654 63.9266 126.298 64.5107 126.751 65.0367C127.205 65.5627 128.295 65.8316 129.187 65.6372Z" fill="white" fill-opacity="0.5"/>
<path d="M138.874 63.5254C139.765 63.331 140.121 62.747 139.668 62.2209C139.214 61.6949 138.124 61.426 137.232 61.6204C136.34 61.8148 135.985 62.3988 136.438 62.9249C136.891 63.4509 137.982 63.7198 138.874 63.5254Z" fill="white" fill-opacity="0.5"/>
<path d="M107.426 73.7744C108.318 73.58 108.674 72.996 108.22 72.47C107.767 71.9439 106.677 71.6751 105.785 71.8695C104.893 72.0639 104.537 72.6479 104.991 73.1739C105.444 73.6999 106.535 73.9688 107.426 73.7744Z" fill="white" fill-opacity="0.5"/>
<path d="M117.119 71.6626C118.011 71.4682 118.366 70.8842 117.913 70.3581C117.459 69.8321 116.369 69.5633 115.477 69.7576C114.585 69.952 114.23 70.5361 114.683 71.0621C115.136 71.5881 116.227 71.857 117.119 71.6626Z" fill="white" fill-opacity="0.5"/>
<path d="M112.354 79.489C113.246 79.2946 113.601 78.7106 113.148 78.1846C112.695 77.6585 111.604 77.3897 110.712 77.5841C109.821 77.7785 109.465 78.3625 109.918 78.8885C110.372 79.4145 111.462 79.6834 112.354 79.489Z" fill="white" fill-opacity="0.5"/>
<path d="M122.044 77.3779C122.935 77.1835 123.291 76.5995 122.838 76.0735C122.384 75.5474 121.294 75.2786 120.402 75.473C119.51 75.6674 119.155 76.2514 119.608 76.7774C120.061 77.3035 121.152 77.5723 122.044 77.3779Z" fill="white" fill-opacity="0.5"/>
<path d="M114.735 75.5752C115.627 75.3808 115.982 74.7968 115.529 74.2707C115.076 73.7447 113.985 73.4758 113.093 73.6702C112.201 73.8646 111.846 74.4487 112.299 74.9747C112.753 75.5007 113.843 75.7696 114.735 75.5752Z" fill="white" fill-opacity="0.5"/>
<path d="M124.42 73.4641C125.311 73.2697 125.667 72.6857 125.213 72.1596C124.76 71.6336 123.67 71.3648 122.778 71.5592C121.886 71.7535 121.531 72.3376 121.984 72.8636C122.437 73.3896 123.528 73.6585 124.42 73.4641Z" fill="white" fill-opacity="0.5"/>
<path d="M126.804 69.5505C127.696 69.3561 128.052 68.7721 127.598 68.2461C127.145 67.72 126.054 67.4512 125.163 67.6456C124.271 67.84 123.915 68.424 124.369 68.95C124.822 69.4761 125.912 69.7449 126.804 69.5505Z" fill="white" fill-opacity="0.5"/>
<path d="M136.498 67.4392C137.389 67.2448 137.745 66.6608 137.292 66.1347C136.838 65.6087 135.748 65.3399 134.856 65.5343C133.964 65.7286 133.609 66.3127 134.062 66.8387C134.515 67.3647 135.606 67.6336 136.498 67.4392Z" fill="white" fill-opacity="0.5"/>
<path d="M131.733 75.2656C132.625 75.0712 132.98 74.4872 132.527 73.9612C132.074 73.4351 130.983 73.1663 130.091 73.3607C129.2 73.5551 128.844 74.1391 129.297 74.6651C129.751 75.1911 130.841 75.46 131.733 75.2656Z" fill="white" fill-opacity="0.5"/>
<path d="M141.42 73.1533C142.311 72.9589 142.667 72.3749 142.213 71.8489C141.76 71.3228 140.67 71.054 139.778 71.2484C138.886 71.4428 138.531 72.0268 138.984 72.5528C139.437 73.0788 140.528 73.3477 141.42 73.1533Z" fill="white" fill-opacity="0.5"/>
<path d="M134.113 71.352C135.005 71.1576 135.36 70.5736 134.907 70.0476C134.454 69.5216 133.363 69.2527 132.471 69.4471C131.579 69.6415 131.224 70.2255 131.677 70.7515C132.131 71.2776 133.221 71.5464 134.113 71.352Z" fill="white" fill-opacity="0.5"/>
<path d="M143.802 69.2402C144.694 69.0458 145.05 68.4618 144.596 67.9358C144.143 67.4097 143.053 67.1409 142.161 67.3353C141.269 67.5297 140.913 68.1137 141.367 68.6397C141.82 69.1658 142.91 69.4346 143.802 69.2402Z" fill="white" fill-opacity="0.5"/>
<path d="M146.181 65.3269C147.073 65.1325 147.429 64.5485 146.975 64.0224C146.522 63.4964 145.431 63.2276 144.54 63.4219C143.648 63.6163 143.292 64.2004 143.746 64.7264C144.199 65.2524 145.289 65.5213 146.181 65.3269Z" fill="white" fill-opacity="0.5"/>
<path d="M151.109 71.041C152.001 70.8466 152.356 70.2626 151.903 69.7366C151.45 69.2105 150.359 68.9417 149.467 69.1361C148.576 69.3305 148.22 69.9145 148.673 70.4405C149.127 70.9665 150.217 71.2354 151.109 71.041Z" fill="white" fill-opacity="0.5"/>
<path d="M165.559 61.1028C166.451 60.9084 166.806 60.3244 166.353 59.7983C165.9 59.2723 164.809 59.0034 163.918 59.1978C163.026 59.3922 162.67 59.9762 163.124 60.5023C163.577 61.0283 164.667 61.2972 165.559 61.1028Z" fill="white" fill-opacity="0.5"/>
<path d="M170.486 66.8176C171.378 66.6232 171.733 66.0392 171.28 65.5132C170.827 64.9871 169.736 64.7183 168.844 64.9127C167.952 65.1071 167.597 65.6911 168.05 66.2171C168.504 66.7431 169.594 67.012 170.486 66.8176Z" fill="white" fill-opacity="0.5"/>
<path d="M44.659 196.202L45.8652 196.465L50.0808 197.384L68.1475 201.322L61.7702 208.722L54.2706 217.424L47.9001 224.817L45.4912 224.292L43.2909 226.845L41.8817 225.16L38.4731 225.795L40.6735 223.242L29.8335 220.879L25.6179 219.96L24.4116 219.697C23.0843 219.408 22.6769 218.392 23.503 217.434L28.3751 211.78L35.8746 203.078L40.7535 197.416C41.5802 196.458 43.3323 195.913 44.659 196.202ZM66.1937 201.93L49.3314 198.254L43.7041 204.784L60.5664 208.46L66.1937 201.93ZM40.9466 212.964C41.279 213.037 41.3808 213.291 41.1738 213.531C41.1738 213.531 41.17 213.534 41.1689 213.535L43.5802 214.061C43.5813 214.059 43.5816 214.057 43.5816 214.057C43.7901 213.815 44.2275 213.68 44.5599 213.752C44.8923 213.825 44.9941 214.078 44.7872 214.318C44.7872 214.318 44.7833 214.321 44.7822 214.323L47.1935 214.848C47.1946 214.847 47.1949 214.845 47.1949 214.845C47.4034 214.603 47.8408 214.467 48.1733 214.54C48.5057 214.612 48.6075 214.866 48.4005 215.106C48.4005 215.106 48.3967 215.109 48.3955 215.11L50.8068 215.636C50.808 215.634 50.8083 215.632 50.8083 215.632C51.0167 215.39 51.4542 215.255 51.7866 215.327C52.119 215.4 52.2208 215.653 52.0138 215.894C52.0138 215.894 52.01 215.896 52.0089 215.898L53.8167 216.292L54.9454 214.982L57.1953 212.371L59.4452 209.761L59.8164 209.33L59.2449 209.205C59.5518 209.287 59.6454 209.528 59.4452 209.761C59.2382 210.001 58.8004 210.137 58.468 210.064C58.1355 209.992 58.0337 209.738 58.2407 209.498C58.441 209.266 58.8556 209.135 59.1835 209.192L55.6316 208.418C55.9384 208.499 56.0321 208.741 55.8318 208.973C55.6249 209.213 55.1871 209.349 54.8546 209.277C54.5222 209.204 54.4204 208.951 54.6274 208.71C54.8276 208.478 55.2423 208.347 55.5701 208.404L52.0182 207.63C52.3251 207.711 52.4187 207.953 52.2185 208.185C52.0115 208.426 51.5737 208.562 51.2413 208.489C50.9089 208.417 50.8071 208.163 51.0141 207.923C51.2143 207.69 51.6289 207.56 51.9568 207.617L48.4049 206.842C48.7118 206.924 48.8054 207.165 48.6052 207.398C48.3982 207.638 47.9604 207.774 47.628 207.702C47.2955 207.629 47.1937 207.375 47.4007 207.135C47.601 206.903 48.0156 206.772 48.3435 206.829L44.7916 206.055C45.0984 206.136 45.1921 206.378 44.9918 206.61C44.7848 206.85 44.3471 206.987 44.0146 206.914C43.6822 206.842 43.5804 206.588 43.7874 206.348C43.9876 206.115 44.4023 205.984 44.7301 206.041L42.9542 205.654L41.833 206.955C42.1654 207.028 42.2672 207.282 42.0602 207.522C41.8532 207.762 41.4155 207.898 41.083 207.826L39.5831 209.566C39.9155 209.639 40.0173 209.892 39.8104 210.133C39.6034 210.373 39.1656 210.509 38.8332 210.436L37.3332 212.177C37.6657 212.249 37.7675 212.503 37.5605 212.743C37.5605 212.743 37.5567 212.746 37.5555 212.747L39.9668 213.273C39.968 213.272 39.9683 213.27 39.9683 213.27C40.1767 213.028 40.6142 212.892 40.9466 212.964ZM41.0791 224.432L42.7837 224.114L43.4879 224.957L44.2874 224.029L41.8785 223.504L41.0791 224.432ZM41.424 222.371L46.2418 223.422L47.4462 223.684L53.0668 217.162L36.2046 213.487L30.584 220.009L41.424 222.371ZM29.3796 219.746L35.0001 213.224L42.4997 204.522L48.127 197.992L46.3203 197.598L40.693 204.128L33.1934 212.83L27.5729 219.352L29.3796 219.746ZM36.788 205.339C36.4555 205.266 36.3537 205.013 36.5607 204.772C36.761 204.54 37.1756 204.409 37.5035 204.466L36.3297 204.21L30.3301 211.172L32.739 211.697L38.7386 204.735L37.5649 204.48C37.8718 204.561 37.9654 204.803 37.7652 205.035C37.5582 205.275 37.1204 205.411 36.788 205.339ZM24.708 217.696C24.2952 218.175 24.4992 218.682 25.1622 218.827L26.3685 219.09L31.989 212.568L29.5801 212.043L24.708 217.696ZM39.4886 203.865L45.1159 197.335L43.9096 197.072C43.2466 196.928 42.371 197.2 41.9585 197.679L37.0797 203.34L39.4886 203.865Z" fill="white" fill-opacity="0.5"/>
<path d="M55.5355 210.976C55.2029 210.904 55.1012 210.65 55.3083 210.41C55.5154 210.169 55.9529 210.033 56.2855 210.106C56.6181 210.178 56.7198 210.432 56.5127 210.672C56.3056 210.912 55.8681 211.049 55.5355 210.976Z" fill="white" fill-opacity="0.5"/>
<path d="M51.9213 210.188C51.5887 210.116 51.4869 209.862 51.694 209.622C51.9011 209.382 52.3386 209.246 52.6712 209.318C53.0038 209.391 53.1056 209.644 52.8985 209.885C52.6914 210.125 52.2539 210.261 51.9213 210.188Z" fill="white" fill-opacity="0.5"/>
<path d="M48.3099 209.401C47.9773 209.328 47.8756 209.075 48.0827 208.834C48.2898 208.594 48.7273 208.458 49.0599 208.53C49.3925 208.603 49.4942 208.856 49.2871 209.097C49.08 209.337 48.6425 209.473 48.3099 209.401Z" fill="white" fill-opacity="0.5"/>
<path d="M44.6957 208.613C44.3631 208.54 44.2613 208.287 44.4684 208.046C44.6755 207.806 45.113 207.67 45.4456 207.743C45.7782 207.815 45.88 208.069 45.6729 208.309C45.4658 208.549 45.0283 208.685 44.6957 208.613Z" fill="white" fill-opacity="0.5"/>
<path d="M56.2162 212.675C55.8836 212.603 55.7818 212.349 55.9889 212.109C56.196 211.869 56.6335 211.733 56.9661 211.805C57.2987 211.878 57.4005 212.131 57.1934 212.371C56.9863 212.612 56.5488 212.748 56.2162 212.675Z" fill="white" fill-opacity="0.5"/>
<path d="M52.6 211.888C52.2674 211.815 52.1656 211.562 52.3727 211.322C52.5798 211.081 53.0173 210.945 53.3499 211.018C53.6825 211.09 53.7843 211.344 53.5772 211.584C53.3701 211.824 52.9326 211.96 52.6 211.888Z" fill="white" fill-opacity="0.5"/>
<path d="M53.9613 215.286C53.6287 215.214 53.527 214.96 53.7341 214.72C53.9411 214.48 54.3787 214.344 54.7113 214.416C55.0439 214.489 55.1456 214.742 54.9385 214.982C54.7314 215.223 54.2939 215.359 53.9613 215.286Z" fill="white" fill-opacity="0.5"/>
<path d="M50.3509 214.498C50.0183 214.426 49.9166 214.172 50.1237 213.932C50.3308 213.692 50.7683 213.556 51.1009 213.628C51.4335 213.701 51.5352 213.954 51.3281 214.194C51.1211 214.435 50.6835 214.571 50.3509 214.498Z" fill="white" fill-opacity="0.5"/>
<path d="M53.2845 213.587C52.9519 213.514 52.8502 213.261 53.0573 213.02C53.2644 212.78 53.7019 212.644 54.0345 212.717C54.3671 212.789 54.4688 213.043 54.2617 213.283C54.0546 213.523 53.6171 213.659 53.2845 213.587Z" fill="white" fill-opacity="0.5"/>
<path d="M49.6722 212.799C49.3396 212.727 49.2379 212.473 49.445 212.233C49.6521 211.993 50.0896 211.857 50.4222 211.929C50.7548 212.002 50.8565 212.255 50.6494 212.495C50.4423 212.736 50.0048 212.872 49.6722 212.799Z" fill="white" fill-opacity="0.5"/>
<path d="M48.9916 211.1C48.659 211.027 48.5572 210.774 48.7643 210.533C48.9714 210.293 49.4089 210.157 49.7415 210.23C50.0741 210.302 50.1759 210.556 49.9688 210.796C49.7617 211.036 49.3242 211.172 48.9916 211.1Z" fill="white" fill-opacity="0.5"/>
<path d="M45.3734 210.313C45.0408 210.24 44.9391 209.987 45.1462 209.746C45.3533 209.506 45.7908 209.37 46.1234 209.442C46.456 209.515 46.5577 209.769 46.3506 210.009C46.1435 210.249 45.706 210.385 45.3734 210.313Z" fill="white" fill-opacity="0.5"/>
<path d="M46.7386 213.711C46.406 213.638 46.3043 213.385 46.5114 213.145C46.7185 212.904 47.156 212.768 47.4886 212.841C47.8212 212.913 47.9229 213.167 47.7158 213.407C47.5087 213.647 47.0712 213.783 46.7386 213.711Z" fill="white" fill-opacity="0.5"/>
<path d="M43.1244 212.923C42.7918 212.851 42.69 212.597 42.8971 212.357C43.1042 212.116 43.5417 211.98 43.8743 212.053C44.2069 212.125 44.3087 212.379 44.1016 212.619C43.8945 212.86 43.457 212.996 43.1244 212.923Z" fill="white" fill-opacity="0.5"/>
<path d="M46.0599 212.011C45.7273 211.939 45.6256 211.685 45.8327 211.445C46.0398 211.205 46.4773 211.069 46.8099 211.141C47.1425 211.214 47.2442 211.467 47.0371 211.708C46.83 211.948 46.3925 212.084 46.0599 212.011Z" fill="white" fill-opacity="0.5"/>
<path d="M42.4476 211.224C42.115 211.151 42.0133 210.898 42.2204 210.657C42.4275 210.417 42.865 210.281 43.1976 210.353C43.5302 210.426 43.6319 210.679 43.4248 210.92C43.2177 211.16 42.7802 211.296 42.4476 211.224Z" fill="white" fill-opacity="0.5"/>
<path d="M41.7621 209.525C41.4295 209.452 41.3277 209.199 41.5348 208.958C41.7419 208.718 42.1794 208.582 42.512 208.654C42.8446 208.727 42.9464 208.98 42.7393 209.221C42.5322 209.461 42.0947 209.597 41.7621 209.525Z" fill="white" fill-opacity="0.5"/>
<path d="M39.5121 212.136C39.1795 212.063 39.0777 211.81 39.2848 211.569C39.4919 211.329 39.9294 211.193 40.262 211.265C40.5946 211.338 40.6964 211.592 40.4893 211.832C40.2822 212.072 39.8447 212.208 39.5121 212.136Z" fill="white" fill-opacity="0.5"/>
<path d="M34.5355 207.949C34.2029 207.877 34.1012 207.623 34.3083 207.383C34.5154 207.143 34.9529 207.007 35.2855 207.079C35.6181 207.152 35.7198 207.405 35.5127 207.646C35.3056 207.886 34.8681 208.022 34.5355 207.949Z" fill="white" fill-opacity="0.5"/>
<path d="M32.2855 210.561C31.9529 210.488 31.8512 210.234 32.0583 209.994C32.2654 209.754 32.7029 209.618 33.0355 209.69C33.3681 209.763 33.4698 210.016 33.2627 210.257C33.0556 210.497 32.6181 210.633 32.2855 210.561Z" fill="white" fill-opacity="0.5"/>
<path d="M159.829 384.977L161.035 384.714L165.251 383.795L183.317 379.857L177.232 372.796L170.075 364.491L163.996 357.437L161.587 357.962L159.487 355.525L158.032 357.157L154.669 356.575L156.769 359.012L145.929 361.375L141.713 362.293L140.507 362.556C139.18 362.846 138.742 363.825 139.53 364.74L144.179 370.135L151.336 378.44L155.992 383.843C156.781 384.757 158.502 385.266 159.829 384.977ZM181.398 379.289L164.536 382.965L159.166 376.733L176.028 373.058L181.398 379.289ZM156.699 368.891C157.032 368.819 157.141 368.574 156.944 368.345C156.944 368.345 156.94 368.342 156.939 368.341L159.35 367.815C159.351 367.816 159.352 367.818 159.352 367.818C159.55 368.049 159.98 368.176 160.313 368.103C160.645 368.031 160.755 367.786 160.557 367.557C160.557 367.557 160.553 367.554 160.552 367.553L162.964 367.027C162.965 367.029 162.965 367.031 162.965 367.031C163.164 367.261 163.594 367.388 163.926 367.316C164.258 367.243 164.368 366.999 164.17 366.769C164.17 366.769 164.167 366.767 164.166 366.765L166.577 366.24C166.578 366.241 166.578 366.243 166.578 366.243C166.777 366.474 167.207 366.601 167.539 366.528C167.872 366.456 167.981 366.211 167.784 365.982C167.784 365.982 167.78 365.979 167.779 365.978L169.587 365.584L170.664 366.834L172.811 369.325L174.958 371.816L175.312 372.227L174.741 372.352C175.048 372.271 175.149 372.038 174.958 371.816C174.76 371.587 174.33 371.46 173.998 371.532C173.665 371.605 173.556 371.85 173.753 372.079C173.945 372.301 174.352 372.423 174.679 372.365L171.127 373.14C171.435 373.059 171.536 372.826 171.345 372.604C171.147 372.375 170.717 372.248 170.385 372.32C170.052 372.393 169.943 372.637 170.14 372.867C170.331 373.088 170.738 373.211 171.066 373.153L167.514 373.927C167.821 373.846 167.922 373.613 167.731 373.392C167.534 373.162 167.104 373.035 166.771 373.108C166.439 373.18 166.329 373.425 166.527 373.654C166.718 373.876 167.125 373.998 167.453 373.941L163.901 374.715C164.208 374.634 164.309 374.401 164.118 374.179C163.92 373.95 163.49 373.823 163.158 373.895C162.825 373.968 162.716 374.213 162.913 374.442C163.105 374.663 163.512 374.786 163.839 374.728L160.287 375.502C160.595 375.422 160.696 375.189 160.505 374.967C160.307 374.738 159.877 374.61 159.545 374.683C159.212 374.755 159.103 375 159.3 375.229C159.491 375.451 159.898 375.573 160.226 375.516L158.45 375.903L157.38 374.661C157.712 374.589 157.822 374.344 157.624 374.115C157.427 373.886 156.997 373.758 156.664 373.831L155.233 372.17C155.565 372.098 155.675 371.853 155.477 371.624C155.28 371.394 154.85 371.267 154.517 371.34L153.086 369.679C153.418 369.606 153.528 369.361 153.33 369.132C153.33 369.132 153.327 369.129 153.326 369.128L155.737 368.603C155.738 368.604 155.738 368.606 155.738 368.606C155.937 368.837 156.367 368.963 156.699 368.891ZM157.211 357.864L158.893 358.155L159.62 357.339L160.383 358.224L157.974 358.749L157.211 357.864ZM157.485 359.842L162.303 358.792L163.508 358.529L168.871 364.753L152.009 368.429L146.645 362.205L157.485 359.842ZM145.441 362.467L150.804 368.691L157.961 376.996L163.331 383.227L161.525 383.621L156.154 377.39L148.998 369.085L143.634 362.861L145.441 362.467ZM152.318 376.258C151.985 376.33 151.876 376.575 152.073 376.805C152.265 377.026 152.672 377.149 152.999 377.091L151.825 377.347L146.1 370.703L148.509 370.178L154.234 376.822L153.061 377.078C153.368 376.997 153.469 376.764 153.278 376.542C153.08 376.313 152.65 376.186 152.318 376.258ZM140.735 364.478C140.341 364.02 140.56 363.531 141.223 363.387L142.43 363.124L147.793 369.348L145.384 369.873L140.735 364.478ZM154.95 377.652L160.32 383.884L159.114 384.147C158.451 384.291 157.591 384.037 157.197 383.58L152.541 378.177L154.95 377.652Z" fill="white" fill-opacity="0.5"/>
<path d="M171.114 370.68C170.781 370.753 170.672 370.997 170.869 371.227C171.067 371.456 171.497 371.583 171.829 371.511C172.162 371.438 172.271 371.193 172.074 370.964C171.876 370.735 171.446 370.608 171.114 370.68Z" fill="white" fill-opacity="0.5"/>
<path d="M167.5 371.468C167.168 371.54 167.058 371.785 167.256 372.014C167.454 372.244 167.884 372.371 168.216 372.298C168.549 372.226 168.658 371.981 168.461 371.752C168.263 371.522 167.833 371.395 167.5 371.468Z" fill="white" fill-opacity="0.5"/>
<path d="M163.89 372.256C163.558 372.329 163.448 372.574 163.646 372.803C163.843 373.032 164.273 373.159 164.606 373.087C164.938 373.014 165.048 372.77 164.85 372.54C164.653 372.311 164.223 372.184 163.89 372.256Z" fill="white" fill-opacity="0.5"/>
<path d="M160.276 373.044C159.943 373.116 159.834 373.361 160.031 373.59C160.229 373.82 160.659 373.947 160.992 373.874C161.324 373.802 161.434 373.557 161.236 373.328C161.038 373.099 160.608 372.971 160.276 373.044Z" fill="white" fill-opacity="0.5"/>
<path d="M171.851 369.042C171.518 369.114 171.409 369.359 171.607 369.588C171.804 369.817 172.234 369.944 172.567 369.872C172.899 369.799 173.009 369.555 172.811 369.325C172.613 369.096 172.184 368.969 171.851 369.042Z" fill="white" fill-opacity="0.5"/>
<path d="M168.233 369.828C167.9 369.901 167.791 370.145 167.989 370.375C168.186 370.604 168.616 370.731 168.949 370.659C169.281 370.586 169.391 370.341 169.193 370.112C168.995 369.883 168.565 369.756 168.233 369.828Z" fill="white" fill-opacity="0.5"/>
<path d="M169.7 366.55C169.367 366.623 169.258 366.867 169.455 367.097C169.653 367.326 170.083 367.453 170.415 367.381C170.748 367.308 170.857 367.064 170.66 366.834C170.462 366.605 170.032 366.478 169.7 366.55Z" fill="white" fill-opacity="0.5"/>
<path d="M166.085 367.337C165.753 367.41 165.643 367.655 165.841 367.884C166.039 368.113 166.468 368.24 166.801 368.168C167.134 368.095 167.243 367.851 167.045 367.621C166.848 367.392 166.418 367.265 166.085 367.337Z" fill="white" fill-opacity="0.5"/>
<path d="M168.966 368.189C168.634 368.262 168.524 368.507 168.722 368.736C168.92 368.965 169.349 369.092 169.682 369.02C170.015 368.947 170.124 368.703 169.926 368.473C169.729 368.244 169.299 368.117 168.966 368.189Z" fill="white" fill-opacity="0.5"/>
<path d="M165.356 368.977C165.023 369.049 164.914 369.294 165.112 369.523C165.309 369.752 165.739 369.88 166.072 369.807C166.404 369.735 166.514 369.49 166.316 369.261C166.118 369.031 165.689 368.904 165.356 368.977Z" fill="white" fill-opacity="0.5"/>
<path d="M164.624 370.617C164.291 370.689 164.181 370.934 164.379 371.163C164.577 371.393 165.007 371.52 165.339 371.447C165.672 371.375 165.781 371.13 165.584 370.901C165.386 370.671 164.956 370.544 164.624 370.617Z" fill="white" fill-opacity="0.5"/>
<path d="M161.007 371.404C160.675 371.476 160.565 371.721 160.763 371.95C160.961 372.18 161.39 372.307 161.723 372.234C162.056 372.162 162.165 371.917 161.967 371.688C161.77 371.458 161.34 371.331 161.007 371.404Z" fill="white" fill-opacity="0.5"/>
<path d="M162.473 368.125C162.141 368.198 162.031 368.442 162.229 368.672C162.426 368.901 162.856 369.028 163.189 368.955C163.521 368.883 163.631 368.638 163.433 368.409C163.236 368.18 162.806 368.053 162.473 368.125Z" fill="white" fill-opacity="0.5"/>
<path d="M158.861 368.913C158.528 368.985 158.419 369.23 158.616 369.459C158.814 369.688 159.244 369.816 159.576 369.743C159.909 369.671 160.019 369.426 159.821 369.197C159.623 368.967 159.193 368.84 158.861 368.913Z" fill="white" fill-opacity="0.5"/>
<path d="M161.742 369.765C161.409 369.837 161.3 370.082 161.497 370.311C161.695 370.54 162.125 370.668 162.457 370.595C162.79 370.523 162.899 370.278 162.702 370.049C162.504 369.819 162.074 369.692 161.742 369.765Z" fill="white" fill-opacity="0.5"/>
<path d="M158.129 370.552C157.797 370.624 157.687 370.869 157.885 371.098C158.083 371.328 158.512 371.455 158.845 371.382C159.178 371.31 159.287 371.065 159.089 370.836C158.892 370.606 158.462 370.479 158.129 370.552Z" fill="white" fill-opacity="0.5"/>
<path d="M157.394 372.191C157.061 372.264 156.952 372.509 157.15 372.738C157.347 372.967 157.777 373.094 158.11 373.022C158.442 372.949 158.552 372.705 158.354 372.475C158.156 372.246 157.727 372.119 157.394 372.191Z" fill="white" fill-opacity="0.5"/>
<path d="M155.249 369.7C154.916 369.773 154.806 370.017 155.004 370.247C155.202 370.476 155.632 370.603 155.964 370.531C156.297 370.458 156.406 370.214 156.209 369.984C156.011 369.755 155.581 369.628 155.249 369.7Z" fill="white" fill-opacity="0.5"/>
<path d="M150.169 373.768C149.837 373.84 149.727 374.085 149.925 374.314C150.123 374.543 150.552 374.671 150.885 374.598C151.218 374.526 151.327 374.281 151.129 374.052C150.932 373.822 150.502 373.695 150.169 373.768Z" fill="white" fill-opacity="0.5"/>
<path d="M148.021 371.275C147.688 371.347 147.579 371.592 147.777 371.821C147.974 372.051 148.404 372.178 148.737 372.105C149.069 372.033 149.179 371.788 148.981 371.559C148.783 371.33 148.354 371.202 148.021 371.275Z" fill="white" fill-opacity="0.5"/>
<path d="M1406.04 202.764L1404.83 203.027L1400.62 203.946L1382.55 207.884L1388.99 215.358L1396.57 224.147L1403 231.613L1405.41 231.088L1407.63 233.666L1409.03 231.97L1412.45 232.616L1410.23 230.037L1421.07 227.675L1425.28 226.756L1426.49 226.493C1427.82 226.204 1428.22 225.18 1427.38 224.212L1422.46 218.502L1414.89 209.713L1409.96 203.995C1409.13 203.027 1407.37 202.475 1406.04 202.764ZM1384.51 208.5L1401.38 204.825L1407.06 211.42L1390.2 215.095L1384.51 208.5ZM1409.88 219.674C1409.55 219.746 1409.45 220.002 1409.66 220.244C1409.66 220.244 1409.66 220.247 1409.66 220.249L1407.25 220.774C1407.25 220.773 1407.25 220.771 1407.25 220.771C1407.04 220.526 1406.6 220.389 1406.27 220.461C1405.93 220.534 1405.83 220.789 1406.04 221.032C1406.04 221.032 1406.05 221.035 1406.05 221.036L1403.64 221.562C1403.64 221.56 1403.64 221.558 1403.64 221.558C1403.43 221.314 1402.99 221.176 1402.65 221.249C1402.32 221.321 1402.22 221.577 1402.43 221.82C1402.43 221.82 1402.43 221.822 1402.44 221.824L1400.02 222.349C1400.02 222.348 1400.02 222.346 1400.02 222.346C1399.81 222.102 1399.37 221.964 1399.04 222.037C1398.71 222.109 1398.61 222.365 1398.82 222.607C1398.82 222.607 1398.82 222.61 1398.82 222.611L1397.01 223.005L1395.87 221.683L1393.6 219.046L1391.33 216.409L1390.95 215.974L1391.53 215.85C1391.22 215.931 1391.13 216.175 1391.33 216.409C1391.54 216.652 1391.98 216.79 1392.31 216.717C1392.64 216.645 1392.74 216.389 1392.53 216.147C1392.33 215.912 1391.92 215.779 1391.59 215.836L1395.14 215.062C1394.83 215.143 1394.74 215.387 1394.94 215.622C1395.15 215.864 1395.59 216.002 1395.92 215.93C1396.26 215.857 1396.36 215.602 1396.15 215.359C1395.95 215.124 1395.53 214.992 1395.2 215.049L1398.75 214.274C1398.45 214.356 1398.35 214.599 1398.56 214.834C1398.77 215.077 1399.2 215.215 1399.54 215.142C1399.87 215.07 1399.97 214.814 1399.76 214.571C1399.56 214.337 1399.14 214.204 1398.81 214.261L1402.37 213.487C1402.06 213.568 1401.97 213.812 1402.17 214.046C1402.38 214.289 1402.82 214.427 1403.15 214.355C1403.48 214.282 1403.58 214.026 1403.37 213.784C1403.17 213.549 1402.76 213.417 1402.43 213.473L1405.98 212.699C1405.67 212.781 1405.58 213.024 1405.78 213.259C1405.99 213.501 1406.43 213.639 1406.76 213.567C1407.1 213.495 1407.2 213.239 1406.99 212.996C1406.79 212.762 1406.37 212.629 1406.04 212.686L1407.82 212.299L1408.95 213.613C1408.62 213.685 1408.52 213.941 1408.73 214.183C1408.93 214.426 1409.37 214.564 1409.71 214.492L1411.22 216.249C1410.89 216.322 1410.79 216.578 1411 216.82C1411.21 217.063 1411.65 217.201 1411.98 217.128L1413.49 218.886C1413.16 218.959 1413.06 219.214 1413.27 219.457C1413.27 219.457 1413.27 219.46 1413.28 219.461L1410.86 219.987C1410.86 219.985 1410.86 219.983 1410.86 219.983C1410.65 219.739 1410.21 219.601 1409.88 219.674ZM1409.83 231.237L1408.12 230.913L1407.42 231.762L1406.61 230.825L1409.02 230.3L1409.83 231.237ZM1409.47 229.159L1404.65 230.209L1403.45 230.471L1397.77 223.884L1414.63 220.209L1420.31 226.796L1409.47 229.159ZM1421.51 226.533L1415.84 219.946L1408.26 211.157L1402.58 204.562L1404.39 204.169L1410.07 210.763L1417.64 219.553L1423.32 226.14L1421.51 226.533ZM1413.99 211.992C1414.32 211.919 1414.42 211.664 1414.21 211.421C1414.01 211.186 1413.6 211.054 1413.27 211.111L1414.44 210.855L1420.5 217.886L1418.09 218.411L1412.03 211.38L1413.21 211.124C1412.9 211.205 1412.81 211.449 1413.01 211.684C1413.22 211.926 1413.66 212.064 1413.99 211.992ZM1426.18 224.475C1426.6 224.959 1426.4 225.47 1425.73 225.614L1424.53 225.877L1418.85 219.29L1421.26 218.765L1426.18 224.475ZM1411.28 210.501L1405.59 203.906L1406.8 203.643C1407.46 203.499 1408.34 203.775 1408.76 204.258L1413.68 209.976L1411.28 210.501Z" fill="white" fill-opacity="0.5"/>
<path d="M1395.25 217.642C1395.59 217.569 1395.69 217.314 1395.48 217.071C1395.27 216.829 1394.83 216.691 1394.5 216.763C1394.16 216.836 1394.06 217.091 1394.27 217.334C1394.48 217.576 1394.92 217.714 1395.25 217.642Z" fill="white" fill-opacity="0.5"/>
<path d="M1398.87 216.855C1399.2 216.782 1399.3 216.527 1399.09 216.284C1398.88 216.041 1398.44 215.903 1398.11 215.976C1397.78 216.048 1397.68 216.304 1397.89 216.546C1398.1 216.789 1398.54 216.927 1398.87 216.855Z" fill="white" fill-opacity="0.5"/>
<path d="M1402.48 216.067C1402.81 215.994 1402.91 215.739 1402.7 215.496C1402.5 215.253 1402.06 215.115 1401.72 215.188C1401.39 215.26 1401.29 215.516 1401.5 215.759C1401.71 216.001 1402.15 216.139 1402.48 216.067Z" fill="white" fill-opacity="0.5"/>
<path d="M1406.09 215.279C1406.43 215.206 1406.53 214.951 1406.32 214.708C1406.11 214.465 1405.67 214.327 1405.34 214.4C1405 214.472 1404.9 214.728 1405.11 214.971C1405.32 215.213 1405.76 215.351 1406.09 215.279Z" fill="white" fill-opacity="0.5"/>
<path d="M1394.59 219.355C1394.92 219.282 1395.02 219.027 1394.81 218.784C1394.6 218.541 1394.16 218.403 1393.83 218.476C1393.5 218.548 1393.4 218.804 1393.6 219.046C1393.81 219.289 1394.25 219.427 1394.59 219.355Z" fill="white" fill-opacity="0.5"/>
<path d="M1398.2 218.567C1398.53 218.494 1398.63 218.239 1398.42 217.996C1398.21 217.753 1397.78 217.615 1397.44 217.688C1397.11 217.76 1397.01 218.016 1397.22 218.259C1397.43 218.501 1397.87 218.639 1398.2 218.567Z" fill="white" fill-opacity="0.5"/>
<path d="M1396.86 221.991C1397.19 221.919 1397.29 221.663 1397.08 221.42C1396.87 221.178 1396.43 221.04 1396.1 221.112C1395.77 221.185 1395.67 221.44 1395.88 221.683C1396.09 221.926 1396.53 222.064 1396.86 221.991Z" fill="white" fill-opacity="0.5"/>
<path d="M1400.47 221.203C1400.8 221.131 1400.9 220.875 1400.7 220.632C1400.49 220.39 1400.05 220.252 1399.71 220.324C1399.38 220.397 1399.28 220.652 1399.49 220.895C1399.7 221.138 1400.14 221.276 1400.47 221.203Z" fill="white" fill-opacity="0.5"/>
<path d="M1397.53 220.279C1397.86 220.206 1397.96 219.951 1397.75 219.708C1397.54 219.465 1397.1 219.327 1396.77 219.4C1396.44 219.472 1396.34 219.728 1396.55 219.971C1396.76 220.213 1397.2 220.351 1397.53 220.279Z" fill="white" fill-opacity="0.5"/>
<path d="M1401.14 219.491C1401.47 219.418 1401.57 219.163 1401.36 218.92C1401.15 218.677 1400.72 218.539 1400.38 218.612C1400.05 218.684 1399.95 218.94 1400.16 219.182C1400.37 219.425 1400.81 219.563 1401.14 219.491Z" fill="white" fill-opacity="0.5"/>
<path d="M1401.81 217.779C1402.14 217.707 1402.24 217.451 1402.03 217.208C1401.82 216.966 1401.39 216.828 1401.05 216.9C1400.72 216.973 1400.62 217.228 1400.83 217.471C1401.04 217.714 1401.48 217.852 1401.81 217.779Z" fill="white" fill-opacity="0.5"/>
<path d="M1405.42 216.991C1405.76 216.919 1405.86 216.663 1405.65 216.421C1405.44 216.178 1405 216.04 1404.67 216.112C1404.33 216.185 1404.23 216.44 1404.44 216.683C1404.65 216.926 1405.09 217.064 1405.42 216.991Z" fill="white" fill-opacity="0.5"/>
<path d="M1404.08 220.416C1404.42 220.343 1404.52 220.088 1404.31 219.845C1404.1 219.602 1403.66 219.464 1403.33 219.537C1402.99 219.609 1402.89 219.865 1403.1 220.108C1403.31 220.35 1403.75 220.488 1404.08 220.416Z" fill="white" fill-opacity="0.5"/>
<path d="M1407.7 219.628C1408.03 219.556 1408.13 219.3 1407.92 219.058C1407.71 218.815 1407.27 218.677 1406.94 218.749C1406.61 218.822 1406.51 219.077 1406.72 219.32C1406.93 219.563 1407.37 219.701 1407.7 219.628Z" fill="white" fill-opacity="0.5"/>
<path d="M1404.75 218.704C1405.09 218.631 1405.19 218.376 1404.98 218.133C1404.77 217.89 1404.33 217.752 1404 217.825C1403.66 217.897 1403.56 218.153 1403.77 218.396C1403.98 218.638 1404.42 218.776 1404.75 218.704Z" fill="white" fill-opacity="0.5"/>
<path d="M1408.37 217.916C1408.7 217.843 1408.8 217.588 1408.59 217.345C1408.38 217.102 1407.94 216.964 1407.61 217.037C1407.28 217.109 1407.18 217.365 1407.38 217.607C1407.59 217.85 1408.03 217.988 1408.37 217.916Z" fill="white" fill-opacity="0.5"/>
<path d="M1409.04 216.203C1409.37 216.131 1409.47 215.875 1409.26 215.633C1409.05 215.39 1408.61 215.252 1408.28 215.325C1407.95 215.397 1407.85 215.653 1408.06 215.895C1408.27 216.138 1408.71 216.276 1409.04 216.203Z" fill="white" fill-opacity="0.5"/>
<path d="M1411.31 218.84C1411.64 218.767 1411.74 218.512 1411.54 218.269C1411.33 218.027 1410.89 217.889 1410.55 217.961C1410.22 218.034 1410.12 218.289 1410.33 218.532C1410.54 218.774 1410.98 218.912 1411.31 218.84Z" fill="white" fill-opacity="0.5"/>
<path d="M1416.26 214.628C1416.6 214.556 1416.7 214.3 1416.49 214.058C1416.28 213.815 1415.84 213.677 1415.51 213.749C1415.17 213.822 1415.07 214.077 1415.28 214.32C1415.49 214.563 1415.93 214.701 1416.26 214.628Z" fill="white" fill-opacity="0.5"/>
<path d="M1418.54 217.266C1418.87 217.193 1418.97 216.938 1418.76 216.695C1418.55 216.452 1418.11 216.314 1417.78 216.387C1417.45 216.459 1417.35 216.715 1417.56 216.958C1417.76 217.2 1418.2 217.338 1418.54 217.266Z" fill="white" fill-opacity="0.5"/>
<path d="M1251.25 68.7313L1255.17 69.5859L1268.87 72.5725L1327.6 85.3723L1308.22 107.852L1285.44 134.287L1266.09 156.743L1258.26 155.037L1251.58 162.793L1246.78 157.562L1235.92 159.38L1242.6 151.623L1207.37 143.943L1193.67 140.957L1189.74 140.102C1185.43 139.162 1183.96 136.027 1186.47 133.115L1201.27 115.941L1224.05 89.5055L1238.87 72.3078C1241.39 69.3963 1246.94 67.7914 1251.25 68.7313ZM1321.4 87.163L1266.6 75.2165L1249.5 95.0525L1304.31 106.999L1321.4 87.163ZM1241.89 120.07C1242.97 120.305 1243.34 121.088 1242.71 121.818C1242.71 121.818 1242.7 121.826 1242.7 121.83L1250.53 123.539C1250.54 123.535 1250.54 123.529 1250.54 123.529C1251.17 122.794 1252.56 122.394 1253.64 122.629C1254.72 122.865 1255.09 123.648 1254.46 124.378C1254.46 124.378 1254.45 124.386 1254.44 124.39L1262.28 126.099C1262.28 126.095 1262.28 126.089 1262.28 126.089C1262.92 125.354 1264.3 124.954 1265.38 125.189C1266.46 125.425 1266.83 126.208 1266.2 126.938C1266.2 126.938 1266.19 126.946 1266.19 126.95L1274.02 128.659C1274.03 128.655 1274.03 128.648 1274.03 128.648C1274.66 127.914 1276.05 127.514 1277.13 127.749C1278.21 127.985 1278.58 128.768 1277.95 129.498C1277.95 129.498 1277.93 129.506 1277.93 129.51L1283.81 130.791L1287.24 126.812L1294.07 118.882L1300.9 110.951L1302.03 109.643L1300.17 109.238C1301.17 109.499 1301.51 110.245 1300.9 110.951C1300.28 111.681 1298.89 112.082 1297.81 111.846C1296.73 111.611 1296.36 110.827 1296.99 110.098C1297.6 109.392 1298.91 109.006 1299.98 109.194L1288.43 106.678C1289.43 106.94 1289.77 107.685 1289.16 108.391C1288.53 109.121 1287.14 109.522 1286.06 109.286C1284.98 109.051 1284.62 108.267 1285.25 107.538C1285.85 106.832 1287.17 106.446 1288.23 106.634L1276.69 104.118C1277.69 104.38 1278.02 105.125 1277.42 105.831C1276.79 106.561 1275.4 106.962 1274.32 106.726C1273.24 106.491 1272.87 105.707 1273.5 104.978C1274.11 104.272 1275.42 103.886 1276.49 104.074L1264.94 101.558C1265.94 101.82 1266.28 102.565 1265.67 103.271C1265.04 104.001 1263.65 104.402 1262.57 104.166C1261.49 103.931 1261.13 103.148 1261.76 102.418C1262.36 101.712 1263.68 101.326 1264.74 101.514L1253.2 98.9978C1254.2 99.2597 1254.53 100.005 1253.93 100.711C1253.3 101.441 1251.91 101.842 1250.83 101.606C1249.75 101.371 1249.38 100.588 1250.01 99.8579C1250.62 99.1521 1251.93 98.7664 1253 98.9543L1247.22 97.6961L1243.82 101.648C1244.9 101.884 1245.27 102.667 1244.64 103.397C1244.01 104.126 1242.62 104.527 1241.54 104.292L1236.98 109.579C1238.06 109.814 1238.43 110.598 1237.8 111.327C1237.17 112.057 1235.79 112.458 1234.71 112.222L1230.15 117.51C1231.23 117.745 1231.6 118.528 1230.97 119.258C1230.97 119.258 1230.96 119.266 1230.95 119.27L1238.79 120.979C1238.79 120.975 1238.79 120.969 1238.79 120.969C1239.43 120.234 1240.81 119.834 1241.89 120.07ZM1244.09 155.295L1249.52 154.385L1251.92 157.002L1254.35 154.184L1246.52 152.477L1244.09 155.295ZM1244.88 148.98L1260.54 152.393L1264.46 153.247L1281.53 133.435L1226.72 121.488L1209.65 141.3L1244.88 148.98ZM1205.73 140.447L1222.81 120.635L1245.59 94.1992L1262.68 74.3632L1256.81 73.0832L1239.72 92.9192L1216.93 119.355L1199.86 139.167L1205.73 140.447ZM1227.34 96.4865C1226.26 96.251 1225.89 95.4677 1226.52 94.738C1227.13 94.0322 1228.44 93.6465 1229.51 93.8344L1225.69 93.0028L1207.47 114.151L1215.3 115.858L1233.52 94.7094L1229.71 93.8779C1230.71 94.1397 1231.05 94.8855 1230.44 95.5913C1229.81 96.321 1228.42 96.722 1227.34 96.4865ZM1190.39 133.969C1189.14 135.424 1189.87 136.989 1192.02 137.459L1195.95 138.314L1213.02 118.502L1205.19 116.795L1190.39 133.969ZM1235.8 92.0659L1252.89 72.2299L1248.97 71.3753C1246.82 70.9055 1244.04 71.7076 1242.79 73.1615L1227.97 90.3592L1235.8 92.0659Z" fill="white" fill-opacity="0.5"/>
<path d="M1288.52 114.532C1287.44 114.296 1287.07 113.513 1287.7 112.783C1288.33 112.053 1289.72 111.652 1290.8 111.888C1291.88 112.124 1292.25 112.906 1291.62 113.636C1290.99 114.366 1289.6 114.767 1288.52 114.532Z" fill="white" fill-opacity="0.5"/>
<path d="M1276.78 111.972C1275.7 111.736 1275.33 110.954 1275.96 110.224C1276.59 109.494 1277.97 109.093 1279.06 109.328C1280.14 109.564 1280.5 110.347 1279.87 111.077C1279.24 111.807 1277.86 112.208 1276.78 111.972Z" fill="white" fill-opacity="0.5"/>
<path d="M1265.03 109.411C1263.95 109.176 1263.59 108.393 1264.21 107.663C1264.84 106.933 1266.23 106.532 1267.31 106.768C1268.39 107.003 1268.76 107.786 1268.13 108.516C1267.5 109.246 1266.11 109.647 1265.03 109.411Z" fill="white" fill-opacity="0.5"/>
<path d="M1253.29 106.852C1252.21 106.616 1251.84 105.833 1252.47 105.103C1253.1 104.373 1254.49 103.972 1255.57 104.208C1256.65 104.444 1257.01 105.227 1256.39 105.957C1255.76 106.687 1254.37 107.087 1253.29 106.852Z" fill="white" fill-opacity="0.5"/>
<path d="M1290.98 119.776C1289.9 119.541 1289.53 118.758 1290.16 118.028C1290.79 117.298 1292.17 116.897 1293.25 117.133C1294.34 117.369 1294.7 118.151 1294.07 118.881C1293.44 119.611 1292.06 120.012 1290.98 119.776Z" fill="white" fill-opacity="0.5"/>
<path d="M1279.23 117.216C1278.15 116.981 1277.78 116.198 1278.41 115.468C1279.04 114.738 1280.43 114.337 1281.51 114.573C1282.59 114.808 1282.95 115.591 1282.33 116.321C1281.7 117.051 1280.31 117.452 1279.23 117.216Z" fill="white" fill-opacity="0.5"/>
<path d="M1284.14 127.707C1283.06 127.472 1282.69 126.689 1283.32 125.959C1283.95 125.229 1285.34 124.828 1286.42 125.064C1287.5 125.299 1287.87 126.082 1287.24 126.812C1286.61 127.542 1285.22 127.943 1284.14 127.707Z" fill="white" fill-opacity="0.5"/>
<path d="M1272.4 125.148C1271.31 124.912 1270.95 124.13 1271.58 123.4C1272.21 122.67 1273.59 122.269 1274.67 122.504C1275.75 122.74 1276.12 123.523 1275.49 124.253C1274.86 124.983 1273.48 125.384 1272.4 125.148Z" fill="white" fill-opacity="0.5"/>
<path d="M1281.69 122.461C1280.6 122.225 1280.24 121.443 1280.87 120.713C1281.5 119.983 1282.88 119.582 1283.96 119.817C1285.04 120.053 1285.41 120.836 1284.78 121.566C1284.15 122.296 1282.77 122.697 1281.69 122.461Z" fill="white" fill-opacity="0.5"/>
<path d="M1269.95 119.902C1268.86 119.667 1268.5 118.884 1269.13 118.154C1269.76 117.424 1271.14 117.023 1272.22 117.259C1273.31 117.494 1273.67 118.277 1273.04 119.007C1272.41 119.737 1271.03 120.138 1269.95 119.902Z" fill="white" fill-opacity="0.5"/>
<path d="M1267.49 114.657C1266.41 114.421 1266.04 113.638 1266.67 112.908C1267.3 112.178 1268.68 111.778 1269.77 112.013C1270.85 112.249 1271.21 113.032 1270.58 113.762C1269.95 114.492 1268.57 114.892 1267.49 114.657Z" fill="white" fill-opacity="0.5"/>
<path d="M1255.74 112.098C1254.66 111.862 1254.29 111.079 1254.92 110.349C1255.55 109.619 1256.93 109.218 1258.02 109.454C1259.1 109.69 1259.46 110.472 1258.83 111.202C1258.2 111.932 1256.82 112.333 1255.74 112.098Z" fill="white" fill-opacity="0.5"/>
<path d="M1260.65 122.588C1259.57 122.352 1259.2 121.57 1259.83 120.84C1260.46 120.11 1261.85 119.709 1262.93 119.944C1264.01 120.18 1264.38 120.963 1263.75 121.693C1263.12 122.423 1261.73 122.824 1260.65 122.588Z" fill="white" fill-opacity="0.5"/>
<path d="M1248.91 120.027C1247.83 119.792 1247.46 119.009 1248.09 118.279C1248.72 117.549 1250.11 117.148 1251.19 117.384C1252.27 117.62 1252.63 118.402 1252 119.132C1251.38 119.862 1249.99 120.263 1248.91 120.027Z" fill="white" fill-opacity="0.5"/>
<path d="M1258.2 117.342C1257.11 117.106 1256.75 116.323 1257.38 115.593C1258.01 114.863 1259.39 114.463 1260.47 114.698C1261.56 114.934 1261.92 115.717 1261.29 116.447C1260.66 117.177 1259.28 117.578 1258.2 117.342Z" fill="white" fill-opacity="0.5"/>
<path d="M1246.45 114.782C1245.37 114.547 1245.01 113.764 1245.63 113.034C1246.26 112.304 1247.65 111.903 1248.73 112.139C1249.81 112.374 1250.18 113.157 1249.55 113.887C1248.92 114.617 1247.53 115.018 1246.45 114.782Z" fill="white" fill-opacity="0.5"/>
<path d="M1244 109.536C1242.92 109.301 1242.55 108.518 1243.18 107.788C1243.81 107.058 1245.2 106.657 1246.28 106.893C1247.36 107.129 1247.73 107.911 1247.1 108.641C1246.47 109.371 1245.08 109.772 1244 109.536Z" fill="white" fill-opacity="0.5"/>
<path d="M1237.16 117.467C1236.08 117.231 1235.72 116.448 1236.35 115.718C1236.98 114.988 1238.36 114.587 1239.44 114.823C1240.52 115.059 1240.89 115.842 1240.26 116.572C1239.63 117.302 1238.25 117.702 1237.16 117.467Z" fill="white" fill-opacity="0.5"/>
<path d="M1220.51 104.416C1219.43 104.181 1219.06 103.398 1219.69 102.668C1220.32 101.938 1221.71 101.537 1222.79 101.773C1223.87 102.008 1224.24 102.791 1223.61 103.521C1222.98 104.251 1221.59 104.652 1220.51 104.416Z" fill="white" fill-opacity="0.5"/>
<path d="M1213.68 112.347C1212.6 112.112 1212.23 111.329 1212.86 110.599C1213.49 109.869 1214.87 109.468 1215.95 109.704C1217.04 109.939 1217.4 110.722 1216.77 111.452C1216.14 112.182 1214.76 112.583 1213.68 112.347Z" fill="white" fill-opacity="0.5"/>
<rect x="321.59" y="47" width="2.89738" height="29" rx="1.44869" fill="white"/>
<rect width="2.57712" height="9.0101" rx="1.28856" transform="translate(333.259 49.752) scale(0.999551 1.00045) rotate(47.0344)" fill="white"/>
<rect width="2.57743" height="9.00902" rx="1.28872" transform="matrix(0.575095 -0.818087 0.817598 0.57579 311.07 52.5088)" fill="white"/>
<rect width="2.57712" height="9.0101" rx="1.28856" transform="translate(333.641 72.4302) scale(0.999551 -1.00045) rotate(47.0344)" fill="white"/>
<rect width="2.57743" height="9.00902" rx="1.28872" transform="matrix(0.575095 0.818087 0.817598 -0.57579 311.451 69.6741)" fill="white"/>
<rect width="2.9" height="28.9738" rx="1.45" transform="translate(338.973 60.0508) rotate(89.4574)" fill="white"/>
<rect x="1395.79" y="61" width="2.69756" height="26" rx="1.34878" fill="white"/>
<rect width="2.35218" height="8.2457" rx="1.17609" transform="matrix(0.694925 0.719082 -0.744121 0.668045 1406.65 63.468)" fill="white"/>
<rect width="2.34057" height="8.28601" rx="1.17028" transform="matrix(0.589619 -0.807682 0.827633 0.56127 1386 65.9395)" fill="white"/>
<rect width="2.35218" height="8.2457" rx="1.17609" transform="matrix(0.694925 -0.719082 -0.744121 -0.668045 1407.01 83.8)" fill="white"/>
<rect width="2.34057" height="8.28601" rx="1.17028" transform="matrix(0.589619 0.807682 0.827633 -0.56127 1386.35 81.3286)" fill="white"/>
<rect width="2.60001" height="26.9756" rx="1.3" transform="matrix(0.00983388 0.999952 -0.999958 0.00913547 1411.97 72.7002)" fill="white"/>
<rect x="55.4072" y="320" width="2.39784" height="25" rx="1.19892" transform="scale(-1 1)" fill="white"/>
<rect width="2.18086" height="7.60269" rx="1.09043" transform="matrix(-0.666236 0.745741 0.717383 0.696679 45.75 322.373)" fill="white"/>
<rect width="2.19293" height="7.56015" rx="1.09646" transform="matrix(-0.559391 -0.828904 -0.806307 0.591498 64.1113 324.75)" fill="white"/>
<rect width="2.18086" height="7.60269" rx="1.09043" transform="matrix(-0.666236 -0.745741 0.717383 -0.696679 45.4326 341.923)" fill="white"/>
<rect width="2.19293" height="7.56015" rx="1.09646" transform="matrix(-0.559391 0.828904 -0.806307 -0.591498 63.7988 339.546)" fill="white"/>
<rect width="2.49999" height="23.9784" rx="1.25" transform="matrix(-0.00909094 0.999959 0.999951 0.00988205 41.0225 331.249)" fill="white"/>
<path d="M1259.17 356.525L1260.38 356.788L1264.6 357.707L1282.66 361.645L1277.62 367.502L1271.68 374.39L1266.64 380.241L1264.23 379.716L1262.49 381.737L1260.87 380.294L1257.67 380.687L1259.41 378.666L1248.57 376.303L1244.35 375.384L1243.15 375.121C1241.82 374.832 1241.27 373.979 1241.93 373.22L1245.78 368.746L1251.72 361.857L1255.58 357.376C1256.24 356.618 1257.85 356.236 1259.17 356.525ZM1280.87 362.071L1264 358.396L1259.55 363.564L1276.41 367.239L1280.87 362.071ZM1258.12 370.203C1258.45 370.276 1258.59 370.489 1258.43 370.679C1258.43 370.679 1258.42 370.681 1258.42 370.682L1260.83 371.208C1260.83 371.206 1260.83 371.205 1260.83 371.205C1261 371.013 1261.4 370.918 1261.73 370.991C1262.07 371.063 1262.2 371.276 1262.04 371.466C1262.04 371.466 1262.04 371.469 1262.03 371.47L1264.45 371.995C1264.45 371.994 1264.45 371.992 1264.45 371.992C1264.61 371.801 1265.01 371.706 1265.35 371.778C1265.68 371.851 1265.82 372.064 1265.65 372.254C1265.65 372.254 1265.65 372.256 1265.65 372.257L1268.06 372.783C1268.06 372.782 1268.06 372.78 1268.06 372.78C1268.23 372.589 1268.63 372.493 1268.96 372.566C1269.29 372.638 1269.43 372.851 1269.27 373.042C1269.27 373.042 1269.26 373.044 1269.26 373.045L1271.07 373.439L1271.96 372.402L1273.74 370.336L1275.52 368.269L1275.82 367.928L1275.25 367.804C1275.56 367.883 1275.68 368.085 1275.52 368.269C1275.36 368.459 1274.96 368.555 1274.63 368.482C1274.29 368.41 1274.16 368.197 1274.32 368.007C1274.48 367.823 1274.86 367.731 1275.19 367.79L1271.63 367.016C1271.94 367.095 1272.07 367.298 1271.91 367.482C1271.75 367.672 1271.34 367.767 1271.01 367.695C1270.68 367.622 1270.54 367.409 1270.71 367.219C1270.86 367.035 1271.25 366.943 1271.57 367.003L1268.02 366.229C1268.33 366.307 1268.46 366.51 1268.3 366.694C1268.13 366.884 1267.73 366.98 1267.4 366.907C1267.07 366.835 1266.93 366.622 1267.09 366.432C1267.25 366.248 1267.63 366.156 1267.96 366.215L1264.41 365.441C1264.72 365.52 1264.84 365.723 1264.68 365.906C1264.52 366.097 1264.12 366.192 1263.79 366.12C1263.45 366.047 1263.32 365.834 1263.48 365.644C1263.64 365.46 1264.02 365.368 1264.35 365.428L1260.79 364.653C1261.1 364.732 1261.23 364.935 1261.07 365.119C1260.91 365.309 1260.5 365.404 1260.17 365.332C1259.84 365.26 1259.7 365.046 1259.87 364.856C1260.02 364.672 1260.41 364.58 1260.73 364.64L1258.96 364.253L1258.07 365.283C1258.4 365.355 1258.54 365.568 1258.37 365.758C1258.21 365.948 1257.81 366.044 1257.47 365.971L1256.29 367.349C1256.62 367.422 1256.76 367.635 1256.59 367.825C1256.43 368.015 1256.03 368.11 1255.69 368.038L1254.51 369.415C1254.84 369.488 1254.98 369.701 1254.81 369.891C1254.81 369.891 1254.81 369.893 1254.81 369.894L1257.22 370.42C1257.22 370.419 1257.22 370.417 1257.22 370.417C1257.39 370.226 1257.79 370.131 1258.12 370.203ZM1259.98 379.663L1261.58 379.466L1262.39 380.188L1263.02 379.454L1260.62 378.929L1259.98 379.663ZM1260 377.977L1264.82 379.027L1266.03 379.29L1270.48 374.128L1253.61 370.452L1249.16 375.614L1260 377.977ZM1247.96 375.352L1252.41 370.19L1258.34 363.301L1262.8 358.133L1260.99 357.739L1256.54 362.908L1250.6 369.796L1246.15 374.958L1247.96 375.352ZM1252.95 363.757C1252.61 363.684 1252.48 363.471 1252.64 363.281C1252.8 363.097 1253.18 363.005 1253.51 363.065L1252.33 362.809L1247.58 368.319L1249.99 368.844L1254.74 363.334L1253.57 363.078C1253.88 363.157 1254 363.36 1253.84 363.544C1253.68 363.734 1253.28 363.829 1252.95 363.757ZM1243.13 373.483C1242.81 373.862 1243.08 374.288 1243.74 374.433L1244.95 374.696L1249.4 369.533L1246.99 369.008L1243.13 373.483ZM1255.33 362.645L1259.79 357.477L1258.58 357.214C1257.92 357.069 1257.11 357.26 1256.79 357.639L1252.92 362.12L1255.33 362.645Z" fill="white" fill-opacity="0.5"/>
<path d="M1271.93 369.122C1271.6 369.05 1271.46 368.837 1271.62 368.647C1271.79 368.457 1272.19 368.361 1272.52 368.434C1272.85 368.506 1272.99 368.719 1272.83 368.909C1272.66 369.1 1272.26 369.195 1271.93 369.122Z" fill="white" fill-opacity="0.5"/>
<path d="M1268.31 368.334C1267.98 368.261 1267.85 368.048 1268.01 367.858C1268.17 367.668 1268.58 367.573 1268.91 367.645C1269.24 367.718 1269.38 367.931 1269.21 368.121C1269.05 368.311 1268.65 368.406 1268.31 368.334Z" fill="white" fill-opacity="0.5"/>
<path d="M1264.7 367.547C1264.37 367.474 1264.23 367.261 1264.4 367.071C1264.56 366.881 1264.96 366.785 1265.3 366.858C1265.63 366.93 1265.76 367.143 1265.6 367.334C1265.44 367.524 1265.03 367.619 1264.7 367.547Z" fill="white" fill-opacity="0.5"/>
<path d="M1261.09 366.759C1260.76 366.687 1260.62 366.474 1260.78 366.284C1260.95 366.093 1261.35 365.998 1261.68 366.07C1262.02 366.143 1262.15 366.356 1261.99 366.546C1261.82 366.736 1261.42 366.832 1261.09 366.759Z" fill="white" fill-opacity="0.5"/>
<path d="M1272.85 370.548C1272.51 370.476 1272.38 370.263 1272.54 370.073C1272.7 369.882 1273.11 369.787 1273.44 369.859C1273.77 369.932 1273.91 370.145 1273.74 370.335C1273.58 370.525 1273.18 370.621 1272.85 370.548Z" fill="white" fill-opacity="0.5"/>
<path d="M1269.23 369.762C1268.89 369.689 1268.76 369.476 1268.92 369.286C1269.09 369.096 1269.49 369 1269.82 369.073C1270.15 369.145 1270.29 369.358 1270.13 369.549C1269.96 369.739 1269.56 369.834 1269.23 369.762Z" fill="white" fill-opacity="0.5"/>
<path d="M1271.06 372.616C1270.73 372.543 1270.59 372.33 1270.75 372.14C1270.92 371.95 1271.32 371.854 1271.65 371.927C1271.99 371.999 1272.12 372.212 1271.96 372.403C1271.8 372.593 1271.39 372.688 1271.06 372.616Z" fill="white" fill-opacity="0.5"/>
<path d="M1267.45 371.828C1267.12 371.755 1266.98 371.542 1267.14 371.352C1267.31 371.162 1267.71 371.066 1268.04 371.139C1268.37 371.211 1268.51 371.424 1268.35 371.614C1268.18 371.805 1267.78 371.9 1267.45 371.828Z" fill="white" fill-opacity="0.5"/>
<path d="M1270.15 371.188C1269.82 371.115 1269.68 370.902 1269.84 370.712C1270.01 370.522 1270.41 370.427 1270.74 370.499C1271.07 370.572 1271.21 370.785 1271.05 370.975C1270.88 371.165 1270.48 371.26 1270.15 371.188Z" fill="white" fill-opacity="0.5"/>
<path d="M1266.53 370.401C1266.2 370.328 1266.06 370.115 1266.23 369.925C1266.39 369.735 1266.79 369.639 1267.13 369.712C1267.46 369.784 1267.6 369.997 1267.43 370.188C1267.27 370.378 1266.87 370.473 1266.53 370.401Z" fill="white" fill-opacity="0.5"/>
<path d="M1265.62 368.974C1265.29 368.901 1265.15 368.688 1265.31 368.498C1265.48 368.308 1265.88 368.212 1266.21 368.285C1266.55 368.357 1266.68 368.57 1266.52 368.76C1266.35 368.951 1265.95 369.046 1265.62 368.974Z" fill="white" fill-opacity="0.5"/>
<path d="M1262 368.186C1261.67 368.114 1261.53 367.901 1261.7 367.711C1261.86 367.521 1262.26 367.425 1262.6 367.498C1262.93 367.57 1263.07 367.783 1262.9 367.973C1262.74 368.164 1262.34 368.259 1262 368.186Z" fill="white" fill-opacity="0.5"/>
<path d="M1263.83 371.04C1263.5 370.968 1263.36 370.755 1263.53 370.565C1263.69 370.375 1264.09 370.279 1264.43 370.352C1264.76 370.424 1264.9 370.637 1264.73 370.827C1264.57 371.018 1264.17 371.113 1263.83 371.04Z" fill="white" fill-opacity="0.5"/>
<path d="M1260.22 370.252C1259.89 370.179 1259.75 369.966 1259.92 369.776C1260.08 369.586 1260.48 369.491 1260.82 369.563C1261.15 369.636 1261.29 369.849 1261.12 370.039C1260.96 370.229 1260.55 370.324 1260.22 370.252Z" fill="white" fill-opacity="0.5"/>
<path d="M1262.92 369.613C1262.59 369.54 1262.45 369.327 1262.62 369.137C1262.78 368.947 1263.18 368.851 1263.51 368.924C1263.85 368.996 1263.98 369.209 1263.82 369.4C1263.66 369.59 1263.25 369.685 1262.92 369.613Z" fill="white" fill-opacity="0.5"/>
<path d="M1259.31 368.825C1258.98 368.753 1258.84 368.54 1259 368.349C1259.17 368.159 1259.57 368.064 1259.9 368.136C1260.23 368.209 1260.37 368.422 1260.21 368.612C1260.04 368.802 1259.64 368.898 1259.31 368.825Z" fill="white" fill-opacity="0.5"/>
<path d="M1258.39 367.397C1258.06 367.325 1257.92 367.112 1258.08 366.922C1258.25 366.732 1258.65 366.636 1258.98 366.709C1259.32 366.781 1259.45 366.994 1259.29 367.184C1259.13 367.374 1258.72 367.47 1258.39 367.397Z" fill="white" fill-opacity="0.5"/>
<path d="M1256.61 369.465C1256.28 369.392 1256.14 369.179 1256.3 368.989C1256.47 368.799 1256.87 368.703 1257.2 368.776C1257.54 368.848 1257.67 369.061 1257.51 369.252C1257.34 369.442 1256.94 369.537 1256.61 369.465Z" fill="white" fill-opacity="0.5"/>
<path d="M1251.16 365.824C1250.83 365.751 1250.7 365.538 1250.86 365.348C1251.02 365.158 1251.43 365.062 1251.76 365.135C1252.09 365.207 1252.23 365.42 1252.06 365.611C1251.9 365.801 1251.5 365.896 1251.16 365.824Z" fill="white" fill-opacity="0.5"/>
<path d="M1249.38 367.891C1249.05 367.818 1248.91 367.605 1249.08 367.415C1249.24 367.225 1249.64 367.129 1249.98 367.202C1250.31 367.274 1250.45 367.487 1250.28 367.677C1250.12 367.868 1249.72 367.963 1249.38 367.891Z" fill="white" fill-opacity="0.5"/>
<rect x="1403.8" y="337" width="1.29883" height="14" rx="0.649414" transform="scale(-1 1)" fill="white"/>
<rect width="1.2037" height="4.18635" rx="0.60185" transform="matrix(-0.653838 0.756635 0.705691 0.70852 1398.57 338.329)" fill="white"/>
<rect width="1.2156" height="4.1441" rx="0.607801" transform="matrix(-0.546614 -0.837385 -0.796769 0.604284 1408.52 339.66)" fill="white"/>
<rect width="1.2037" height="4.18635" rx="0.60185" transform="matrix(-0.653838 -0.756635 0.705691 -0.70852 1398.4 349.277)" fill="white"/>
<rect width="1.2156" height="4.1441" rx="0.607801" transform="matrix(-0.546614 0.837385 -0.796769 -0.604284 1408.35 347.946)" fill="white"/>
<rect width="1.39999" height="12.9884" rx="0.699996" transform="matrix(-0.00879335 0.999961 0.999948 0.0102165 1396.01 343.3)" fill="white"/>
<rect x="1129.39" y="19" width="4.59585" height="48" rx="2.29793" fill="white"/>
<rect width="4.18403" height="14.5841" rx="2.09202" transform="matrix(0.665592 0.746316 -0.716778 0.697301 1147.89 23.5554)" fill="white"/>
<rect width="4.20813" height="14.4991" rx="2.10407" transform="matrix(0.558724 -0.829354 0.805816 0.592166 1112.7 28.1184)" fill="white"/>
<rect width="4.18403" height="14.5841" rx="2.09202" transform="matrix(0.665592 -0.746316 -0.716778 -0.697301 1148.5 61.0918)" fill="white"/>
<rect width="4.20813" height="14.4991" rx="2.10407" transform="matrix(0.558724 0.829354 0.805816 -0.592166 1113.3 56.5291)" fill="white"/>
<rect width="4.79998" height="45.9587" rx="2.39999" transform="matrix(0.00907516 0.999959 -0.999951 0.00989924 1156.96 40.6006)" fill="white"/>
</svg>
